{
  "project_info": {
    "project_number": "275682487034",
    "firebase_url": "https://fubol-5d269-default-rtdb.firebaseio.com",
    "project_id": "fubol-5d269",
    "storage_bucket": "fubol-5d269.appspot.com"
  },
  "client": [
    {
      "client_info": {
        "mobilesdk_app_id": "1:275682487034:android:57f2c98896b0d015193743",
        "android_client_info": {
          "package_name": "com.example.fubol"
        }
      },
      "oauth_client": [
        {
          "client_id": "275682487034-9kpr6b9pvegfep34tcvdfr5jluqtmk9q.apps.googleusercontent.com",
          "client_type": 3
        }
      ],
      "api_key": [
        {
          "current_key": "AIzaSyBcaGpXra3aoAiPhtBxQJ2Zpxhhb9UHSeA"
        }
      ],
      "services": {
        "appinvite_service": {
          "other_platform_oauth_client": [
            {
              "client_id": "275682487034-9kpr6b9pvegfep34tcvdfr5jluqtmk9q.apps.googleusercontent.com",
              "client_type": 3
            },
            {
              "client_id": "275682487034-5t8pk0qbfah71mcm49pmd67jla7dlugf.apps.googleusercontent.com",
              "client_type": 2,
              "ios_info": {
                "bundle_id": "com.example.fubol"
              }
            }
          ]
        }
      }
    }
  ],
  "configuration_version": "1"
}